{
    "name": "ControlCamera",
    "maps": [
        {
            "name": "Camaras",
            "id": "d73543a2-2958-47f7-b3f2-0310d2d97ec7",
            "actions": [
                {
                    "name": "New action",
                    "type": "Button",
                    "id": "c9a949fe-a6f8-4596-976c-5df7c84832a4",
                    "expectedControlType": "Button",
                    "processors": "",
                    "interactions": ""
                },
                {
                    "name": "New action1",
                    "type": "Button",
                    "id": "6052defb-cb84-4006-a2f1-f1a39496604c",
                    "expectedControlType": "Button",
                    "processors": "",
                    "interactions": ""
                },
                {
                    "name": "New action2",
                    "type": "Button",
                    "id": "769e0332-f35e-47cc-8574-96d1ae8d971e",
                    "expectedControlType": "Button",
                    "processors": "",
                    "interactions": ""
                },
                {
                    "name": "New action3",
                    "type": "Button",
                    "id": "c92c2fa2-45f1-4e68-b8a6-35e974930f6b",
                    "expectedControlType": "Button",
                    "processors": "",
                    "interactions": ""
                }
            ],
            "bindings": [
                {
                    "name": "",
                    "id": "1f01ab18-09f9-4d6a-bcf2-597e297993a2",
                    "path": "<Keyboard>/1",
                    "interactions": "Press",
                    "processors": "",
                    "groups": "",
                    "action": "New action",
                    "isComposite": false,
                    "isPartOfComposite": false
                },
                {
                    "name": "",
                    "id": "65ec9aa9-f5af-4699-b7ea-8f197011a968",
                    "path": "<Keyboard>/2",
                    "interactions": "Press",
                    "processors": "",
                    "groups": "",
                    "action": "New action1",
                    "isComposite": false,
                    "isPartOfComposite": false
                },
                {
                    "name": "",
                    "id": "97b29149-95f1-4a0d-8b81-8d78342e7061",
                    "path": "<Keyboard>/3",
                    "interactions": "Press",
                    "processors": "",
                    "groups": "",
                    "action": "New action2",
                    "isComposite": false,
                    "isPartOfComposite": false
                },
                {
                    "name": "",
                    "id": "b663fc6f-0860-4c40-8bac-c2d1813adfbc",
                    "path": "<Keyboard>/4",
                    "interactions": "Press",
                    "processors": "",
                    "groups": "",
                    "action": "New action3",
                    "isComposite": false,
                    "isPartOfComposite": false
                }
            ]
        }
    ],
    "controlSchemes": []
}