%YAML 1.1
%TAG !u! tag:unity3d.com,2011:
--- !u!1045 &1
EditorBuildSettings:
  m_ObjectHideFlags: 0
  serializedVersion: 2
  m_Scenes:
  - enabled: 1
    path: Assets/_Tarea2/Scenes/Menu.unity
    guid: 0d9ec39644cf7374fb82e362e3e3c579
  - enabled: 1
    path: Assets/_Tarea2/Scenes/SpaceInvaders.unity
    guid: 55ff8c0b4665daf499f7b935d17ecb30
  m_configObjects: {}
